{
  "name": "Minesweeper",
  "version": "1.0.0",
  "description": "ApiDoc for Minesweeper API",
  "title": "ApiDoc for Minesweeper",
  "sampleUrl": false,
  "defaultVersion": "0.0.0",
  "apidoc": "0.3.0",
  "generator": {
    "name": "apidoc",
    "time": "2020-05-17T21:25:15.665Z",
    "url": "http://apidocjs.com",
    "version": "0.22.1"
  }
}
